…
``` r
rat
```

    ## # A tibble: 259,233 × 18
    ##    unique_key created_date       closed_date incident_zip incident_address city 
    ##         <dbl> <chr>              <chr>              <dbl> <chr>            <chr>
    ##  1   63575470 2024 Dec 31 10:58… 2025 Jan 0…        10475 3550 BIVONA STR… BRONX
    ##  2   63572156 2024 Dec 31 10:49… 2025 Jan 0…        10475 3550 BIVONA STR… BRONX
    ##  3   63580575 2024 Dec 31 10:28… 2025 Jan 0…        10029 293 PLEASANT AV… NEW …
    ##  4   63583963 2024 Dec 31 06:15… 2025 Jan 0…        11215 441 13 STREET    BROO…
    ##  5   63573818 2024 Dec 31 06:10… 2024 Dec 3…        10021 144 EAST   74 S… NEW …
    ##  6   63572161 2024 Dec 31 06:04… 2024 Dec 3…        11101 21-06 45 AVENUE  LONG…
    ##  7   63578888 2024 Dec 31 05:26… 2025 Jan 0…        11432 160-19 GRAND CE… JAMA…
    ##  8   63577241 2024 Dec 31 05:05… 2024 Dec 3…        11233 68 SOMERS STREET BROO…
    ##  9   63583968 2024 Dec 31 04:47… 2025 Jan 0…        11377 47-34 45 STREET  WOOD…
    ## 10   63572155 2024 Dec 31 04:31… 2024 Dec 3…        10456 320 EAST  167 S… BRONX
    ## # ℹ 259,223 more rows
    ## # ℹ 12 more variables: landmark <chr>, facility_type <chr>,
    ## #   community_board <chr>, borough <chr>, park_borough <chr>,
    ## #   vehicle_type <lgl>, taxi_company_borough <lgl>,
    ## #   taxi_pick_up_location <lgl>, bridge_highway_name <lgl>,
    ## #   bridge_highway_direction <lgl>, road_ramp <lgl>,
    ## #   bridge_highway_segment <lgl>

``` r
rat1= rat |>
  mutate(
    created_date=parse_date_time(created_date, orders = "Y b d I:M:S p") 
  ) 
rat1
```

    ## # A tibble: 259,233 × 18
    ##    unique_key created_date        closed_date      incident_zip incident_address
    ##         <dbl> <dttm>              <chr>                   <dbl> <chr>           
    ##  1   63575470 2024-12-31 22:58:24 2025 Jan 03 09:…        10475 3550 BIVONA STR…
    ##  2   63572156 2024-12-31 22:49:24 2025 Jan 03 09:…        10475 3550 BIVONA STR…
    ##  3   63580575 2024-12-31 22:28:26 2025 Jan 02 07:…        10029 293 PLEASANT AV…
    ##  4   63583963 2024-12-31 18:15:58 2025 Jan 02 10:…        11215 441 13 STREET   
    ##  5   63573818 2024-12-31 18:10:15 2024 Dec 31 06:…        10021 144 EAST   74 S…
    ##  6   63572161 2024-12-31 18:04:50 2024 Dec 31 06:…        11101 21-06 45 AVENUE 
    ##  7   63578888 2024-12-31 17:26:40 2025 Jan 03 03:…        11432 160-19 GRAND CE…
    ##  8   63577241 2024-12-31 17:05:26 2024 Dec 31 05:…        11233 68 SOMERS STREET
    ##  9   63583968 2024-12-31 16:47:45 2025 Jan 03 03:…        11377 47-34 45 STREET 
    ## 10   63572155 2024-12-31 16:31:51 2024 Dec 31 04:…        10456 320 EAST  167 S…
    ## # ℹ 259,223 more rows
    ## # ℹ 13 more variables: city <chr>, landmark <chr>, facility_type <chr>,
    ## #   community_board <chr>, borough <chr>, park_borough <chr>,
    ## #   vehicle_type <lgl>, taxi_company_borough <lgl>,
    ## #   taxi_pick_up_location <lgl>, bridge_highway_name <lgl>,
    ## #   bridge_highway_direction <lgl>, road_ramp <lgl>,
    ## #   bridge_highway_segment <lgl>
…
    ## `summarise()` has grouped output by 'year'. You can override using the
    ## `.groups` argument.

``` r
rat_cleaned
```

    ## # A tibble: 72 × 3
    ## # Groups:   year [6]
    ##     year month     rat_sighting_count
    ##    <dbl> <ord>                  <int>
    ##  1  2019 January                 1020
    ##  2  2019 February                 956
    ##  3  2019 March                   1126
    ##  4  2019 April                   1510
    ##  5  2019 May                     1863
    ##  6  2019 June                    1822
    ##  7  2019 July                    1824
    ##  8  2019 August                  1862
    ##  9  2019 September               1640
    ## 10  2019 October                 1405
    ## # ℹ 62 more rows
…
